{
  "artifactGenerations" : [ ],
  "artifactId" : "digital-asset-legend",
  "groupId" : "com.digital.asset.legend",
  "metamodelDependencies" : [ ],
  "projectDependencies" : [ ],
  "projectId" : "SAMPLE-42355700",
  "projectStructureVersion" : {
    "extensionVersion" : 2,
    "version" : 12
  }
}